^C:\PERFORCE\MIKE190012\YEAR_1\BLOCK_B\01 - RAY-TRACER\RAY-TRACER\X64\DEBUG\BASENODE.OBJ|C:\PERFORCE\MIKE190012\YEAR_1\BLOCK_B\01 - RAY-TRACER\RAY-TRACER\X64\DEBUG\BOX.OBJ|C:\PERFORCE\MIKE190012\YEAR_1\BLOCK_B\01 - RAY-TRACER\RAY-TRACER\X64\DEBUG\BVH.OBJ|C:\PERFORCE\MIKE190012\YEAR_1\BLOCK_B\01 - RAY-TRACER\RAY-TRACER\X64\DEBUG\CAMERA.OBJ|C:\PERFORCE\MIKE190012\YEAR_1\BLOCK_B\01 - RAY-TRACER\RAY-TRACER\X64\DEBUG\COLOR.OBJ|C:\PERFORCE\MIKE190012\YEAR_1\BLOCK_B\01 - RAY-TRACER\RAY-TRACER\X64\DEBUG\CUBE.OBJ|C:\PERFORCE\MIKE190012\YEAR_1\BLOCK_B\01 - RAY-TRACER\RAY-TRACER\X64\DEBUG\GAMEOBJECT.OBJ|C:\PERFORCE\MIKE190012\YEAR_1\BLOCK_B\01 - RAY-TRACER\RAY-TRACER\X64\DEBUG\LEAF.OBJ|C:\PERFORCE\MIKE190012\YEAR_1\BLOCK_B\01 - RAY-TRACER\RAY-TRACER\X64\DEBUG\LIGHT.OBJ|C:\PERFORCE\MIKE190012\YEAR_1\BLOCK_B\01 - RAY-TRACER\RAY-TRACER\X64\DEBUG\MAIN.OBJ|C:\PERFORCE\MIKE190012\YEAR_1\BLOCK_B\01 - RAY-TRACER\RAY-TRACER\X64\DEBUG\MATERIAL.OBJ|C:\PERFORCE\MIKE190012\YEAR_1\BLOCK_B\01 - RAY-TRACER\RAY-TRACER\X64\DEBUG\NODE.OBJ|C:\PERFORCE\MIKE190012\YEAR_1\BLOCK_B\01 - RAY-TRACER\RAY-TRACER\X64\DEBUG\PLANE.OBJ|C:\PERFORCE\MIKE190012\YEAR_1\BLOCK_B\01 - RAY-TRACER\RAY-TRACER\X64\DEBUG\RENDERER.OBJ|C:\PERFORCE\MIKE190012\YEAR_1\BLOCK_B\01 - RAY-TRACER\RAY-TRACER\X64\DEBUG\SCREEN.OBJ|C:\PERFORCE\MIKE190012\YEAR_1\BLOCK_B\01 - RAY-TRACER\RAY-TRACER\X64\DEBUG\SHAPE.OBJ|C:\PERFORCE\MIKE190012\YEAR_1\BLOCK_B\01 - RAY-TRACER\RAY-TRACER\X64\DEBUG\SPHERE.OBJ|C:\PERFORCE\MIKE190012\YEAR_1\BLOCK_B\01 - RAY-TRACER\RAY-TRACER\X64\DEBUG\TRACER.OBJ|C:\PERFORCE\MIKE190012\YEAR_1\BLOCK_B\01 - RAY-TRACER\X64\DEBUG\MATH.LIB
C:\PROGRAM FILES (X86)\WINDOWS KITS\10\LIB\10.0.18362.0\UM\X64\KERNEL32.LIB
C:\PROGRAM FILES (X86)\WINDOWS KITS\10\LIB\10.0.18362.0\UM\X64\USER32.LIB
C:\PROGRAM FILES (X86)\WINDOWS KITS\10\LIB\10.0.18362.0\UM\X64\GDI32.LIB
C:\PROGRAM FILES (X86)\WINDOWS KITS\10\LIB\10.0.18362.0\UM\X64\WINSPOOL.LIB
C:\PROGRAM FILES (X86)\WINDOWS KITS\10\LIB\10.0.18362.0\UM\X64\COMDLG32.LIB
C:\PROGRAM FILES (X86)\WINDOWS KITS\10\LIB\10.0.18362.0\UM\X64\ADVAPI32.LIB
C:\PROGRAM FILES (X86)\WINDOWS KITS\10\LIB\10.0.18362.0\UM\X64\SHELL32.LIB
C:\PROGRAM FILES (X86)\WINDOWS KITS\10\LIB\10.0.18362.0\UM\X64\OLE32.LIB
C:\PROGRAM FILES (X86)\WINDOWS KITS\10\LIB\10.0.18362.0\UM\X64\OLEAUT32.LIB
C:\PROGRAM FILES (X86)\WINDOWS KITS\10\LIB\10.0.18362.0\UM\X64\UUID.LIB
C:\PROGRAM FILES (X86)\WINDOWS KITS\10\LIB\10.0.18362.0\UM\X64\ODBC32.LIB
C:\PROGRAM FILES (X86)\WINDOWS KITS\10\LIB\10.0.18362.0\UM\X64\ODBCCP32.LIB
C:\PERFORCE\MIKE190012\YEAR_1\BLOCK_B\01 - RAY-TRACER\RAY-TRACER\X64\DEBUG\BASENODE.OBJ
C:\PERFORCE\MIKE190012\YEAR_1\BLOCK_B\01 - RAY-TRACER\RAY-TRACER\X64\DEBUG\BOX.OBJ
C:\PERFORCE\MIKE190012\YEAR_1\BLOCK_B\01 - RAY-TRACER\RAY-TRACER\X64\DEBUG\BVH.OBJ
C:\PERFORCE\MIKE190012\YEAR_1\BLOCK_B\01 - RAY-TRACER\RAY-TRACER\X64\DEBUG\CAMERA.OBJ
C:\PERFORCE\MIKE190012\YEAR_1\BLOCK_B\01 - RAY-TRACER\RAY-TRACER\X64\DEBUG\COLOR.OBJ
C:\PERFORCE\MIKE190012\YEAR_1\BLOCK_B\01 - RAY-TRACER\RAY-TRACER\X64\DEBUG\CUBE.OBJ
C:\PERFORCE\MIKE190012\YEAR_1\BLOCK_B\01 - RAY-TRACER\RAY-TRACER\X64\DEBUG\GAMEOBJECT.OBJ
C:\PERFORCE\MIKE190012\YEAR_1\BLOCK_B\01 - RAY-TRACER\RAY-TRACER\X64\DEBUG\LEAF.OBJ
C:\PERFORCE\MIKE190012\YEAR_1\BLOCK_B\01 - RAY-TRACER\RAY-TRACER\X64\DEBUG\LIGHT.OBJ
C:\PERFORCE\MIKE190012\YEAR_1\BLOCK_B\01 - RAY-TRACER\RAY-TRACER\X64\DEBUG\MAIN.OBJ
C:\PERFORCE\MIKE190012\YEAR_1\BLOCK_B\01 - RAY-TRACER\RAY-TRACER\X64\DEBUG\MATERIAL.OBJ
C:\PERFORCE\MIKE190012\YEAR_1\BLOCK_B\01 - RAY-TRACER\RAY-TRACER\X64\DEBUG\NODE.OBJ
C:\PERFORCE\MIKE190012\YEAR_1\BLOCK_B\01 - RAY-TRACER\RAY-TRACER\X64\DEBUG\PLANE.OBJ
C:\PERFORCE\MIKE190012\YEAR_1\BLOCK_B\01 - RAY-TRACER\RAY-TRACER\X64\DEBUG\RENDERER.OBJ
C:\PERFORCE\MIKE190012\YEAR_1\BLOCK_B\01 - RAY-TRACER\RAY-TRACER\X64\DEBUG\SCREEN.OBJ
C:\PERFORCE\MIKE190012\YEAR_1\BLOCK_B\01 - RAY-TRACER\RAY-TRACER\X64\DEBUG\SHAPE.OBJ
C:\PERFORCE\MIKE190012\YEAR_1\BLOCK_B\01 - RAY-TRACER\RAY-TRACER\X64\DEBUG\SPHERE.OBJ
C:\PERFORCE\MIKE190012\YEAR_1\BLOCK_B\01 - RAY-TRACER\RAY-TRACER\X64\DEBUG\TRACER.OBJ
C:\PERFORCE\MIKE190012\YEAR_1\BLOCK_B\01 - RAY-TRACER\X64\DEBUG\MATH.LIB
C:\WINDOWS\SYSTEM32\TZRES.DLL
C:\WINDOWS\GLOBALIZATION\SORTING\SORTDEFAULT.NLS
C:\PROGRAM FILES (X86)\MICROSOFT VISUAL STUDIO\2019\COMMUNITY\VC\TOOLS\MSVC\14.28.29333\LIB\X64\MSVCPRTD.LIB
C:\PROGRAM FILES (X86)\MICROSOFT VISUAL STUDIO\2019\COMMUNITY\VC\TOOLS\MSVC\14.28.29333\LIB\X64\MSVCRTD.LIB
C:\PROGRAM FILES (X86)\MICROSOFT VISUAL STUDIO\2019\COMMUNITY\VC\TOOLS\MSVC\14.28.29333\LIB\X64\OLDNAMES.LIB
C:\PROGRAM FILES (X86)\MICROSOFT VISUAL STUDIO\2019\COMMUNITY\VC\TOOLS\MSVC\14.28.29333\LIB\X64\VCRUNTIMED.LIB
C:\PROGRAM FILES (X86)\WINDOWS KITS\10\LIB\10.0.18362.0\UCRT\X64\UCRTD.LIB
C:\PROGRAM FILES (X86)\MICROSOFT VISUAL STUDIO\2019\COMMUNITY\VC\TOOLS\MSVC\14.28.29333\BIN\HOSTX86\X64\CVTRES.EXE
